{
    "swagger": "2.0",
    "info": {
        "version": "0.0.1",
        "title": "Meta obj store API"
    },
    "host": "metaobjstore-api.herokuapp.com",
    "basePath": "/",
    "schemes": [
        "https"
    ],
    "consumes": [
        "application/json"
    ],
    "produces": [
        "application/json"
    ],
    "securityDefinitions": {
        "basicAuth": {
            "type": "basic",
            "description": "HTTP Basic Authentication. Works over `HTTP` and `HTTPS`"
        }
    },
    "paths": {
        "/metaobj/files/metadata": {
          "x-swagger-router-controller": "meta_obj",
          "get": {
              "description": "List all files metadata",
              "operationId": "metaobj_get_md",
              "tags": ["Objects"],
              "security": [
                  {
                      "basicAuth": []
                  }
              ],
              "parameters": [

              ],
              "responses": {
                  "200": {
                      "description": "Obj file",
                      "schema": {
                          "$ref": "#/definitions/MetaDataResponse"
                      }
                  },
                  "default": {
                      "description": "Error",
                      "schema": {
                          "$ref": "#/definitions/ErrorResponse"
                      }
                  }
              }
          }
        },
        "/metaobj/file": {
            "x-swagger-router-controller": "meta_obj",
            "get": {
                "description": "Retrieves a file by fileKey from s3",
                "operationId": "metaobj_get",
                "tags": ["Objects"],
                "security": [
                    {
                        "basicAuth": []
                    }
                ],
                "parameters": [
                    {
                        "name": "fileKey",
                        "in": "query",
                        "description": "The filename for obj file required to query",
                        "required": true,
                        "type": "string"
                    },
                    {
                        "name": "targetFileName",
                        "in": "query",
                        "description": "The target filename (this parameter will allow saving of files)",
                        "required": false,
                        "type": "string"
                    }
                ],
                "responses": {
                    "200": {
                        "description": "Obj file",
                        "schema": {
                            "type": "file"
                        }
                    },
                    "default": {
                        "description": "Error",
                        "schema": {
                            "$ref": "#/definitions/ErrorResponse"
                        }
                    }
                }
            },
            "post": {
                "description": "Saves a file to s3 and metadata to Mongo",
                "operationId": "metaobj_post",
                "tags": ["Objects"],
                "security": [
                    {
                        "basicAuth": []
                    }
                ],
                "consumes": [
                    "multipart/form-data"
                ],
                "parameters": [
                    {
                        "name": "objFile",
                        "in": "formData",
                        "type": "file",
                        "required": true
                    },
                    {
                        "name": "x_filename",
                        "in": "header",
                        "type": "string",
                        "required": true
                    }
                ],
                "responses": {
                    "200": {
                        "description": "response"
                    }
                }
            },
            "delete": {
                "description": "Deletes a file (by name) stored in the mongo grid-fs database",
                "operationId": "metaobj_del",
                "tags": ["Objects"],
                "security": [
                    {
                        "basicAuth": []
                    }
                ],
                "parameters": [
                    {
                        "name": "filename",
                        "in": "query",
                        "description": "The filename for obj file required to query",
                        "required": true,
                        "type": "string"
                    }
                ],
                "responses": {
                    "200": {
                        "description": "response"
                    },
                    "default": {
                        "description": "Error",
                        "schema": {
                            "$ref": "#/definitions/ErrorResponse"
                        }
                    }
                }
            }
        },
        "/swagger": {
            "x-swagger-pipe": "swagger_raw"
        }
    },
    "definitions": {
       "MetaDataResponse":{
         "required": [
             "_id",
             "filename",
             "contentType",
             "length",
             "chunkSize",
             "uploadDate",
             "aliases",
             "metadata",
             "md5"
         ],
         "properties": {
             "_id": {
                 "type": "object"
             },
             "_file": {
                 "type": "string"
             },
             "s3key": {
                 "type": "string"
             },
             "s3bucket": {
                 "type": "string"
             },
             "date": {
                 "type": "object"
             }
           }
         },
        "MetaObjListResponse": {
            "required": [
                "_id",
                "filename",
                "contentType",
                "length",
                "chunkSize",
                "uploadDate",
                "aliases",
                "metadata",
                "md5"
            ],
            "properties": {
                "_id": {
                    "type": "string"
                },
                "filename": {
                    "type": "string"
                },
                "contentType": {
                    "type": "string"
                },
                "length": {
                    "type": "integer"
                },
                "uploadDate": {
                    "type": "string"
                },
                "chunkSize": {
                    "type": "integer"
                },
                "aliases": {
                    "type": "object"
                },
                "metadata": {
                    "type": "object"
                },
                "md5": {
                    "type": "string"
                }
            }
        },
        "ErrorResponse": {
            "required": [
                "error_msg"
            ],
            "properties": {
                "error_msg": {
                    "type": "string"
                }
            }
        }
    }
}
